<?xml version="1.0" encoding="UTF-8" standalone="no"?>
<!DOCTYPE svg PUBLIC "-//W3C//DTD SVG 1.1//EN" "http://www.w3.org/Graphics/SVG/1.1/DTD/svg11.dtd">
<svg version="1.1" xmlns:xl="http://www.w3.org/1999/xlink" xmlns:dc="http://purl.org/dc/elements/1.1/" xmlns="http://www.w3.org/2000/svg" viewBox="-28.84646 197.9252 482.8898 369.50396" width="482.8898" height="369.50396">
  <defs>
    <marker orient="auto" overflow="visible" markerUnits="strokeWidth" id="StickArrow_Marker" stroke-linejoin="miter" stroke-miterlimit="10" viewBox="-1 -4 10 8" markerWidth="10" markerHeight="8" color="black">
      <g>
        <path d="M 8 0 L 0 0 M 0 -3 L 8 0 L 0 3" fill="none" stroke="currentColor" stroke-width="1"/>
      </g>
    </marker>
  </defs>
  <g id="Canvas_2" stroke-dasharray="none" stroke-opacity="1" fill="none" stroke="none" fill-opacity="1">
    <title>Canvas 2</title>
    <rect fill="white" x="-28.84646" y="197.9252" width="482.8898" height="369.50396"/>
    <g id="Canvas_2_Layer_1">
      <title>Layer 1</title>
      <g id="Group_165">
        <g id="Graphic_83">
          <rect x="255.11813" y="325.98427" width="198.4252" height="28.34646" fill="white"/>
          <rect x="255.11813" y="325.98427" width="198.4252" height="28.34646" stroke="#666" stroke-linecap="butt" stroke-linejoin="round" stroke-width="1"/>
          <text transform="translate(260.11813 331.9615)" fill="black">
            <tspan font-family="Helvetica Neue" font-size="14" fill="black" x="51.8206" y="13" xml:space="preserve">EventContext</tspan>
          </text>
        </g>
        <g id="Graphic_80">
          <rect x="255.11813" y="354.33073" width="198.4252" height="99.2126" fill="white"/>
          <rect x="255.11813" y="354.33073" width="198.4252" height="99.2126" stroke="#666" stroke-linecap="butt" stroke-linejoin="round" stroke-width="1"/>
          <text transform="translate(260.11813 360.92904)" fill="black">
            <tspan font-family="Helvetica Neue" font-size="12" fill="black" x="0" y="11" xml:space="preserve">String : eventId</tspan>
            <tspan font-family="Helvetica Neue" font-size="12" fill="black" x="0" y="25.336" xml:space="preserve">String : protocolId</tspan>
            <tspan font-family="Helvetica Neue" font-size="12" fill="black" x="0" y="39.671997" xml:space="preserve">String : securityLevel</tspan>
            <tspan font-family="Helvetica Neue" font-size="12" fill="black" x="0" y="54.007996" xml:space="preserve">String : currentStateId</tspan>
            <tspan font-family="Helvetica Neue" font-size="12" fill="black" x="0" y="68.343994" xml:space="preserve">EventData : publicData</tspan>
            <tspan font-family="Helvetica Neue" font-size="12" fill="black" x="0" y="82.67999" xml:space="preserve">EventData : secretData</tspan>
          </text>
        </g>
      </g>
      <g id="Group_167">
        <g id="Graphic_106">
          <rect x="-28.34646" y="325.98427" width="198.4252" height="28.34646" fill="white"/>
          <rect x="-28.34646" y="325.98427" width="198.4252" height="28.34646" stroke="black" stroke-linecap="butt" stroke-linejoin="round" stroke-width="1"/>
          <text transform="translate(-23.346458 331.4475)" fill="black">
            <tspan font-family="Helvetica Neue" font-size="15" fill="black" x="76.7151" y="14" xml:space="preserve">Party</tspan>
          </text>
        </g>
        <g id="Graphic_103">
          <rect x="-28.34646" y="354.33073" width="198.4252" height="56.69292" fill="white"/>
          <rect x="-28.34646" y="354.33073" width="198.4252" height="56.69292" stroke="black" stroke-linecap="butt" stroke-linejoin="round" stroke-width="1"/>
          <text transform="translate(-23.346458 361.1732)" fill="black">
            <tspan font-family="Helvetica Neue" font-size="12" fill="black" x="0" y="11" xml:space="preserve">String : id</tspan>
            <tspan font-family="Helvetica Neue" font-size="12" fill="black" x="0" y="25.336" xml:space="preserve">System.Logger : logger</tspan>
            <tspan font-family="Helvetica Neue" font-size="12" fill="black" x="0" y="39.671997" xml:space="preserve">Map&lt;String, Service&gt; : services</tspan>
          </text>
        </g>
      </g>
      <g id="Line_146">
        <line x1="245.3059" y1="269.29136" x2="324.22517" y2="320.5889" marker-end="url(#StickArrow_Marker)" stroke="black" stroke-linecap="round" stroke-linejoin="round" stroke-width="1"/>
      </g>
      <g id="Line_166">
        <line x1="179.89099" y1="269.29136" x2="100.9717" y2="320.5889" marker-end="url(#StickArrow_Marker)" stroke="black" stroke-linecap="round" stroke-linejoin="round" stroke-width="1"/>
      </g>
      <g id="Group_164">
        <g id="Graphic_15">
          <rect x="106.29922" y="198.4252" width="212.59844" height="28.34646" fill="white"/>
          <rect x="106.29922" y="198.4252" width="212.59844" height="28.34646" stroke="black" stroke-linecap="butt" stroke-linejoin="round" stroke-width="1"/>
          <text transform="translate(111.29922 203.88844)" fill="black">
            <tspan font-family="Helvetica Neue" font-size="15" fill="black" x="83.65922" y="14" xml:space="preserve">State</tspan>
          </text>
        </g>
        <g id="Graphic_9">
          <rect x="106.29922" y="226.77167" width="212.59844" height="42.51969" fill="white"/>
          <rect x="106.29922" y="226.77167" width="212.59844" height="42.51969" stroke="black" stroke-linecap="butt" stroke-linejoin="round" stroke-width="1"/>
          <text transform="translate(111.29922 233.6955)" fill="black">
            <tspan font-family="Helvetica Neue" font-size="12" fill="black" x="0" y="11" xml:space="preserve">Party : party</tspan>
            <tspan font-family="Helvetica Neue" font-size="12" fill="black" x="0" y="25.336" xml:space="preserve">EventContext : EventContext</tspan>
          </text>
        </g>
      </g>
      <g id="Group_188">
        <g id="Graphic_190">
          <rect x="255.11813" y="510.23625" width="198.4252" height="28.34646" fill="white"/>
          <rect x="255.11813" y="510.23625" width="198.4252" height="28.34646" stroke="#666" stroke-linecap="butt" stroke-linejoin="round" stroke-width="1"/>
          <text transform="translate(260.11813 516.2135)" fill="black">
            <tspan font-family="Helvetica Neue" font-style="italic" font-size="14" fill="black" x="62.31361" y="13" xml:space="preserve">EventData</tspan>
          </text>
        </g>
        <g id="Graphic_189">
          <rect x="255.11813" y="538.5827" width="198.4252" height="28.34646" fill="white"/>
          <rect x="255.11813" y="538.5827" width="198.4252" height="28.34646" stroke="#666" stroke-linecap="butt" stroke-linejoin="round" stroke-width="1"/>
        </g>
      </g>
      <g id="Group_185">
        <g id="Graphic_187">
          <rect x="-28.34646" y="510.23625" width="198.4252" height="28.34646" fill="white"/>
          <rect x="-28.34646" y="510.23625" width="198.4252" height="28.34646" stroke="#666" stroke-linecap="butt" stroke-linejoin="round" stroke-width="1"/>
          <text transform="translate(-23.346458 516.2135)" fill="black">
            <tspan font-family="Helvetica Neue" font-style="italic" font-size="14" fill="black" x="71.14761" y="13" xml:space="preserve">Service</tspan>
          </text>
        </g>
        <g id="Graphic_186">
          <rect x="-28.34646" y="538.5827" width="198.4252" height="28.34646" fill="white"/>
          <rect x="-28.34646" y="538.5827" width="198.4252" height="28.34646" stroke="#666" stroke-linecap="butt" stroke-linejoin="round" stroke-width="1"/>
        </g>
      </g>
      <g id="Line_184">
        <line x1="70.86615" y1="411.02365" x2="70.86615" y2="500.33625" marker-end="url(#StickArrow_Marker)" stroke="black" stroke-linecap="round" stroke-linejoin="round" stroke-width="1"/>
      </g>
      <g id="Line_191">
        <line x1="354.33073" y1="453.54333" x2="354.33073" y2="500.33625" marker-end="url(#StickArrow_Marker)" stroke="black" stroke-linecap="round" stroke-linejoin="round" stroke-width="1"/>
      </g>
    </g>
  </g>
</svg>
