<?xml version="1.0" encoding="UTF-8" standalone="no"?>
<!DOCTYPE svg PUBLIC "-//W3C//DTD SVG 1.1//EN" "http://www.w3.org/Graphics/SVG/1.1/DTD/svg11.dtd">
<svg xmlns:xl="http://www.w3.org/1999/xlink" xmlns="http://www.w3.org/2000/svg" xmlns:dc="http://purl.org/dc/elements/1.1/" version="1.1" viewBox="-28.84646 608.94886 794.7008 497.063" width="794.7008" height="497.063">
  <defs>
    <marker orient="auto" overflow="visible" markerUnits="strokeWidth" id="StickArrow_Marker" stroke-linejoin="miter" stroke-miterlimit="10" viewBox="-13 -6 14 12" markerWidth="14" markerHeight="12" color="black">
      <g>
        <path d="M -12 0 L 0 0 M 0 4.5 L -12 0 L 0 -4.5" fill="none" stroke="currentColor" stroke-width="1"/>
      </g>
    </marker>
  </defs>
  <g id="electionAuthority" stroke="none" fill="none" stroke-opacity="1" fill-opacity="1" stroke-dasharray="none">
    <title>electionAuthority</title>
    <rect fill="white" x="-28.84646" y="608.94886" width="794.7008" height="497.063"/>
    <g id="electionAuthority_Layer_1">
      <title>Layer 1</title>
      <g id="Graphic_475">
        <path d="M 260.11813 609.44886 L 476.8898 609.44886 C 479.6512 609.44886 481.8898 611.6874 481.8898 614.44886 L 481.8898 675.315 C 481.8898 678.0764 479.6512 680.315 476.8898 680.315 L 260.11813 680.315 C 257.3567 680.315 255.11813 678.0764 255.11813 675.315 L 255.11813 614.44886 C 255.11813 611.6874 257.3567 609.44886 260.11813 609.44886 Z" fill="#008f00" fill-opacity=".5"/>
        <path d="M 260.11813 609.44886 L 476.8898 609.44886 C 479.6512 609.44886 481.8898 611.6874 481.8898 614.44886 L 481.8898 675.315 C 481.8898 678.0764 479.6512 680.315 476.8898 680.315 L 260.11813 680.315 C 257.3567 680.315 255.11813 678.0764 255.11813 675.315 L 255.11813 614.44886 C 255.11813 611.6874 257.3567 609.44886 260.11813 609.44886 Z" stroke="black" stroke-linecap="round" stroke-linejoin="round" stroke-width="1"/>
        <text transform="translate(260.11813 626.8819)" fill="#080808">
          <tspan font-family="Courier" font-size="15" fill="#080808" x="22.871918" y="14" xml:space="preserve">ch.openchvote.core.</tspan>
          <tspan font-family="Courier" font-size="15" fill="#080808" x="31.873383" y="32" xml:space="preserve">electionauthority</tspan>
        </text>
      </g>
      <g id="Graphic_474">
        <path d="M 260.11813 1034.6457 L 476.8898 1034.6457 C 479.6512 1034.6457 481.8898 1036.8843 481.8898 1039.6457 L 481.8898 1100.5119 C 481.8898 1103.2733 479.6512 1105.5119 476.8898 1105.5119 L 260.11813 1105.5119 C 257.3567 1105.5119 255.11813 1103.2733 255.11813 1100.5119 L 255.11813 1039.6457 C 255.11813 1036.8843 257.3567 1034.6457 260.11813 1034.6457 Z" fill="#ffc0c0"/>
        <path d="M 260.11813 1034.6457 L 476.8898 1034.6457 C 479.6512 1034.6457 481.8898 1036.8843 481.8898 1039.6457 L 481.8898 1100.5119 C 481.8898 1103.2733 479.6512 1105.5119 476.8898 1105.5119 L 260.11813 1105.5119 C 257.3567 1105.5119 255.11813 1103.2733 255.11813 1100.5119 L 255.11813 1039.6457 C 255.11813 1036.8843 257.3567 1034.6457 260.11813 1034.6457 Z" stroke="black" stroke-linecap="round" stroke-linejoin="round" stroke-width="1"/>
        <text transform="translate(260.11813 1052.0788)" fill="#080808">
          <tspan font-family="Courier" font-size="15" fill="#080808" x="22.871918" y="14" xml:space="preserve">ch.openchvote.base.</tspan>
          <tspan font-family="Courier" font-size="15" fill="#080808" x="67.87924" y="32" xml:space="preserve">utilities</tspan>
        </text>
      </g>
      <g id="Graphic_473">
        <path d="M 260.11813 892.9134 L 476.8898 892.9134 C 479.6512 892.9134 481.8898 895.152 481.8898 897.9134 L 481.8898 958.7796 C 481.8898 961.541 479.6512 963.7796 476.8898 963.7796 L 260.11813 963.7796 C 257.3567 963.7796 255.11813 961.541 255.11813 958.7796 L 255.11813 897.9134 C 255.11813 895.152 257.3567 892.9134 260.11813 892.9134 Z" fill="#008f00" fill-opacity=".5"/>
        <path d="M 260.11813 892.9134 L 476.8898 892.9134 C 479.6512 892.9134 481.8898 895.152 481.8898 897.9134 L 481.8898 958.7796 C 481.8898 961.541 479.6512 963.7796 476.8898 963.7796 L 260.11813 963.7796 C 257.3567 963.7796 255.11813 961.541 255.11813 958.7796 L 255.11813 897.9134 C 255.11813 895.152 257.3567 892.9134 260.11813 892.9134 Z" stroke="black" stroke-linecap="round" stroke-linejoin="round" stroke-width="1"/>
        <text transform="translate(260.11813 910.3465)" fill="#080808">
          <tspan font-family="Courier" font-size="15" fill="#080808" x="22.871918" y="14" xml:space="preserve">ch.openchvote.core.</tspan>
          <tspan font-family="Courier" font-size="15" fill="#080808" x="63.37851" y="32" xml:space="preserve">algorithms</tspan>
        </text>
      </g>
      <g id="Graphic_472">
        <path d="M 543.5827 1034.6457 L 760.3544 1034.6457 C 763.1158 1034.6457 765.3544 1036.8843 765.3544 1039.6457 L 765.3544 1100.5119 C 765.3544 1103.2733 763.1158 1105.5119 760.3544 1105.5119 L 543.5827 1105.5119 C 540.8213 1105.5119 538.5827 1103.2733 538.5827 1100.5119 L 538.5827 1039.6457 C 538.5827 1036.8843 540.8213 1034.6457 543.5827 1034.6457 Z" fill="#ffc0c0"/>
        <path d="M 543.5827 1034.6457 L 760.3544 1034.6457 C 763.1158 1034.6457 765.3544 1036.8843 765.3544 1039.6457 L 765.3544 1100.5119 C 765.3544 1103.2733 763.1158 1105.5119 760.3544 1105.5119 L 543.5827 1105.5119 C 540.8213 1105.5119 538.5827 1103.2733 538.5827 1100.5119 L 538.5827 1039.6457 C 538.5827 1036.8843 540.8213 1034.6457 543.5827 1034.6457 Z" stroke="black" stroke-linecap="round" stroke-linejoin="round" stroke-width="1"/>
        <text transform="translate(543.5827 1052.0788)" fill="#080808">
          <tspan font-family="Courier" font-size="15" fill="#080808" x="22.871918" y="14" xml:space="preserve">ch.openchvote.base.</tspan>
          <tspan font-family="Courier" font-size="15" fill="#080808" x="67.87924" y="32" xml:space="preserve">framework</tspan>
        </text>
      </g>
      <g id="Graphic_471">
        <path d="M 260.11813 751.18115 L 476.8898 751.18115 C 479.6512 751.18115 481.8898 753.4197 481.8898 756.18115 L 481.8898 817.0473 C 481.8898 819.8087 479.6512 822.0473 476.8898 822.0473 L 260.11813 822.0473 C 257.3567 822.0473 255.11813 819.8087 255.11813 817.0473 L 255.11813 756.18115 C 255.11813 753.4197 257.3567 751.18115 260.11813 751.18115 Z" fill="#008f00" fill-opacity=".5"/>
        <path d="M 260.11813 751.18115 L 476.8898 751.18115 C 479.6512 751.18115 481.8898 753.4197 481.8898 756.18115 L 481.8898 817.0473 C 481.8898 819.8087 479.6512 822.0473 476.8898 822.0473 L 260.11813 822.0473 C 257.3567 822.0473 255.11813 819.8087 255.11813 817.0473 L 255.11813 756.18115 C 255.11813 753.4197 257.3567 751.18115 260.11813 751.18115 Z" stroke="black" stroke-linecap="round" stroke-linejoin="round" stroke-width="1"/>
        <text transform="translate(260.11813 768.6142)" fill="#080808">
          <tspan font-family="Courier" font-size="15" fill="#080808" x="22.871918" y="14" xml:space="preserve">ch.openchvote.core.</tspan>
          <tspan font-family="Courier" font-size="15" fill="#080808" x="72.379974" y="32" xml:space="preserve">protocol</tspan>
        </text>
      </g>
      <g id="Line_470">
        <line x1="368.50396" y1="1020.7457" x2="368.50396" y2="963.7796" marker-start="url(#StickArrow_Marker)" stroke="black" stroke-linecap="round" stroke-linejoin="round" stroke-width="1"/>
      </g>
      <g id="Line_469">
        <line x1="368.50396" y1="879.0134" x2="368.50396" y2="822.0473" marker-start="url(#StickArrow_Marker)" stroke="black" stroke-linecap="round" stroke-linejoin="round" stroke-width="1"/>
      </g>
      <g id="Line_468">
        <line x1="368.50396" y1="737.28115" x2="368.50396" y2="680.315" marker-start="url(#StickArrow_Marker)" stroke="black" stroke-linecap="round" stroke-linejoin="round" stroke-width="1"/>
      </g>
      <g id="Line_467">
        <path d="M 651.96854 1020.7457 L 651.96854 786.6142 L 481.8898 786.6142" marker-start="url(#StickArrow_Marker)" stroke="black" stroke-linecap="round" stroke-linejoin="round" stroke-width="1"/>
      </g>
      <g id="Graphic_466">
        <rect x="-28.34646" y="942.5197" width="226.77167" height="162.99214" fill="white"/>
        <rect x="-28.34646" y="942.5197" width="226.77167" height="162.99214" stroke="black" stroke-linecap="round" stroke-linejoin="round" stroke-width="1"/>
      </g>
      <g id="Graphic_465">
        <text transform="translate(-21.259844 1018.2843)" fill="black">
          <tspan font-family="Helvetica Neue" font-size="16" fill="black" x="50.367375" y="15" xml:space="preserve">base</tspan>
        </text>
      </g>
      <g id="Graphic_464">
        <text transform="translate(-21.259844 968.7796)" fill="black">
          <tspan font-family="Helvetica Neue" font-size="16" fill="black" x="53.631375" y="15" xml:space="preserve">core</tspan>
        </text>
      </g>
      <g id="Graphic_463">
        <path d="M 82.95276 1013.3859 L 165.07875 1013.3859 C 167.84017 1013.3859 170.07875 1015.6245 170.07875 1018.3859 L 170.07875 1036.7323 C 170.07875 1039.4938 167.84017 1041.7323 165.07875 1041.7323 L 82.95276 1041.7323 C 80.19134 1041.7323 77.95276 1039.4938 77.95276 1036.7323 L 77.95276 1018.3859 C 77.95276 1015.6245 80.19134 1013.3859 82.95276 1013.3859 Z" fill="#ffc0c0"/>
        <path d="M 82.95276 1013.3859 L 165.07875 1013.3859 C 167.84017 1013.3859 170.07875 1015.6245 170.07875 1018.3859 L 170.07875 1036.7323 C 170.07875 1039.4938 167.84017 1041.7323 165.07875 1041.7323 L 82.95276 1041.7323 C 80.19134 1041.7323 77.95276 1039.4938 77.95276 1036.7323 L 77.95276 1018.3859 C 77.95276 1015.6245 80.19134 1013.3859 82.95276 1013.3859 Z" stroke="black" stroke-linecap="round" stroke-linejoin="round" stroke-width="1"/>
      </g>
      <g id="Graphic_462">
        <path d="M 82.95276 963.7796 L 165.07875 963.7796 C 167.84017 963.7796 170.07875 966.0182 170.07875 968.7796 L 170.07875 987.126 C 170.07875 989.8875 167.84017 992.126 165.07875 992.126 L 82.95276 992.126 C 80.19134 992.126 77.95276 989.8875 77.95276 987.126 L 77.95276 968.7796 C 77.95276 966.0182 80.19134 963.7796 82.95276 963.7796 Z" fill="#94c78e"/>
        <path d="M 82.95276 963.7796 L 165.07875 963.7796 C 167.84017 963.7796 170.07875 966.0182 170.07875 968.7796 L 170.07875 987.126 C 170.07875 989.8875 167.84017 992.126 165.07875 992.126 L 82.95276 992.126 C 80.19134 992.126 77.95276 989.8875 77.95276 987.126 L 77.95276 968.7796 C 77.95276 966.0182 80.19134 963.7796 82.95276 963.7796 Z" stroke="black" stroke-linecap="round" stroke-linejoin="round" stroke-width="1"/>
      </g>
      <g id="Graphic_461">
        <text transform="translate(-21.259844 1067.9922)" fill="black">
          <tspan font-family="Helvetica Neue" font-size="16" fill="black" x="27.839375" y="15" xml:space="preserve">requires</tspan>
        </text>
      </g>
      <g id="Line_460">
        <line x1="156.17875" y1="1077.1654" x2="77.95276" y2="1077.1654" marker-start="url(#StickArrow_Marker)" stroke="black" stroke-linecap="round" stroke-linejoin="round" stroke-width="1"/>
      </g>
    </g>
  </g>
</svg>
