<?xml version="1.0" encoding="UTF-8" standalone="no"?>
<!DOCTYPE svg PUBLIC "-//W3C//DTD SVG 1.1//EN" "http://www.w3.org/Graphics/SVG/1.1/DTD/svg11.dtd">
<svg xmlns:xl="http://www.w3.org/1999/xlink" xmlns="http://www.w3.org/2000/svg" xmlns:dc="http://purl.org/dc/elements/1.1/" version="1.1" viewBox="-57.19292 708.1615 794.7008 497.063" width="794.7008" height="497.063">
  <defs>
    <marker orient="auto" overflow="visible" markerUnits="strokeWidth" id="StickArrow_Marker" stroke-linejoin="miter" stroke-miterlimit="10" viewBox="-13 -6 14 12" markerWidth="14" markerHeight="12" color="black">
      <g>
        <path d="M -12 0 L 0 0 M 0 4.5 L -12 0 L 0 -4.5" fill="none" stroke="currentColor" stroke-width="1"/>
      </g>
    </marker>
  </defs>
  <g id="votingClient" stroke="none" fill="none" stroke-opacity="1" fill-opacity="1" stroke-dasharray="none">
    <title>votingClient</title>
    <rect fill="white" x="-57.19292" y="708.1615" width="794.7008" height="497.063"/>
    <g id="votingClient_Layer_1">
      <title>Layer 1</title>
      <g id="Graphic_477">
        <path d="M 231.77167 708.6615 L 448.54333 708.6615 C 451.30476 708.6615 453.54333 710.9 453.54333 713.6615 L 453.54333 774.5276 C 453.54333 777.289 451.30476 779.5276 448.54333 779.5276 L 231.77167 779.5276 C 229.01024 779.5276 226.77167 777.289 226.77167 774.5276 L 226.77167 713.6615 C 226.77167 710.9 229.01024 708.6615 231.77167 708.6615 Z" fill="#76d6ff" fill-opacity=".664938"/>
        <path d="M 231.77167 708.6615 L 448.54333 708.6615 C 451.30476 708.6615 453.54333 710.9 453.54333 713.6615 L 453.54333 774.5276 C 453.54333 777.289 451.30476 779.5276 448.54333 779.5276 L 231.77167 779.5276 C 229.01024 779.5276 226.77167 777.289 226.77167 774.5276 L 226.77167 713.6615 C 226.77167 710.9 229.01024 708.6615 231.77167 708.6615 Z" stroke="black" stroke-linecap="round" stroke-linejoin="round" stroke-width="1"/>
        <text transform="translate(226.77167 726.0945)" fill="#080808">
          <tspan font-family="Courier" font-size="15" fill="#080808" x="5.3682556" y="14" xml:space="preserve">ch.openchvote.simulation</tspan>
          <tspan font-family="Courier" font-size="15" fill="#080808" x="54.87631" y="32" xml:space="preserve">.votingclient</tspan>
        </text>
      </g>
      <g id="Graphic_476">
        <path d="M 231.77167 1133.8583 L 448.54333 1133.8583 C 451.30476 1133.8583 453.54333 1136.0969 453.54333 1138.8583 L 453.54333 1199.7245 C 453.54333 1202.4859 451.30476 1204.7245 448.54333 1204.7245 L 231.77167 1204.7245 C 229.01024 1204.7245 226.77167 1202.4859 226.77167 1199.7245 L 226.77167 1138.8583 C 226.77167 1136.0969 229.01024 1133.8583 231.77167 1133.8583 Z" fill="#ffc0c0"/>
        <path d="M 231.77167 1133.8583 L 448.54333 1133.8583 C 451.30476 1133.8583 453.54333 1136.0969 453.54333 1138.8583 L 453.54333 1199.7245 C 453.54333 1202.4859 451.30476 1204.7245 448.54333 1204.7245 L 231.77167 1204.7245 C 229.01024 1204.7245 226.77167 1202.4859 226.77167 1199.7245 L 226.77167 1138.8583 C 226.77167 1136.0969 229.01024 1133.8583 231.77167 1133.8583 Z" stroke="black" stroke-linecap="round" stroke-linejoin="round" stroke-width="1"/>
        <text transform="translate(231.77167 1151.2914)" fill="#080808">
          <tspan font-family="Courier" font-size="15" fill="#080808" x="22.871918" y="14" xml:space="preserve">ch.openchvote.base.</tspan>
          <tspan font-family="Courier" font-size="15" fill="#080808" x="67.87924" y="32" xml:space="preserve">utilities</tspan>
        </text>
      </g>
      <g id="Graphic_475">
        <path d="M 231.77167 992.126 L 448.54333 992.126 C 451.30476 992.126 453.54333 994.3646 453.54333 997.126 L 453.54333 1057.9922 C 453.54333 1060.7536 451.30476 1062.9922 448.54333 1062.9922 L 231.77167 1062.9922 C 229.01024 1062.9922 226.77167 1060.7536 226.77167 1057.9922 L 226.77167 997.126 C 226.77167 994.3646 229.01024 992.126 231.77167 992.126 Z" fill="#008f00" fill-opacity=".5"/>
        <path d="M 231.77167 992.126 L 448.54333 992.126 C 451.30476 992.126 453.54333 994.3646 453.54333 997.126 L 453.54333 1057.9922 C 453.54333 1060.7536 451.30476 1062.9922 448.54333 1062.9922 L 231.77167 1062.9922 C 229.01024 1062.9922 226.77167 1060.7536 226.77167 1057.9922 L 226.77167 997.126 C 226.77167 994.3646 229.01024 992.126 231.77167 992.126 Z" stroke="black" stroke-linecap="round" stroke-linejoin="round" stroke-width="1"/>
        <text transform="translate(231.77167 1009.5591)" fill="#080808">
          <tspan font-family="Courier" font-size="15" fill="#080808" x="22.871918" y="14" xml:space="preserve">ch.openchvote.core.</tspan>
          <tspan font-family="Courier" font-size="15" fill="#080808" x="63.37851" y="32" xml:space="preserve">algorithms</tspan>
        </text>
      </g>
      <g id="Graphic_474">
        <path d="M 515.23625 1133.8583 L 732.0079 1133.8583 C 734.7693 1133.8583 737.0079 1136.0969 737.0079 1138.8583 L 737.0079 1199.7245 C 737.0079 1202.4859 734.7693 1204.7245 732.0079 1204.7245 L 515.23625 1204.7245 C 512.4748 1204.7245 510.23625 1202.4859 510.23625 1199.7245 L 510.23625 1138.8583 C 510.23625 1136.0969 512.4748 1133.8583 515.23625 1133.8583 Z" fill="#ffc0c0"/>
        <path d="M 515.23625 1133.8583 L 732.0079 1133.8583 C 734.7693 1133.8583 737.0079 1136.0969 737.0079 1138.8583 L 737.0079 1199.7245 C 737.0079 1202.4859 734.7693 1204.7245 732.0079 1204.7245 L 515.23625 1204.7245 C 512.4748 1204.7245 510.23625 1202.4859 510.23625 1199.7245 L 510.23625 1138.8583 C 510.23625 1136.0969 512.4748 1133.8583 515.23625 1133.8583 Z" stroke="black" stroke-linecap="round" stroke-linejoin="round" stroke-width="1"/>
        <text transform="translate(515.23625 1151.2914)" fill="#080808">
          <tspan font-family="Courier" font-size="15" fill="#080808" x="22.871918" y="14" xml:space="preserve">ch.openchvote.base.</tspan>
          <tspan font-family="Courier" font-size="15" fill="#080808" x="67.87924" y="32" xml:space="preserve">framework</tspan>
        </text>
      </g>
      <g id="Graphic_473">
        <path d="M 231.77167 850.3938 L 448.54333 850.3938 C 451.30476 850.3938 453.54333 852.6323 453.54333 855.3938 L 453.54333 916.2599 C 453.54333 919.0213 451.30476 921.2599 448.54333 921.2599 L 231.77167 921.2599 C 229.01024 921.2599 226.77167 919.0213 226.77167 916.2599 L 226.77167 855.3938 C 226.77167 852.6323 229.01024 850.3938 231.77167 850.3938 Z" fill="#008f00" fill-opacity=".5"/>
        <path d="M 231.77167 850.3938 L 448.54333 850.3938 C 451.30476 850.3938 453.54333 852.6323 453.54333 855.3938 L 453.54333 916.2599 C 453.54333 919.0213 451.30476 921.2599 448.54333 921.2599 L 231.77167 921.2599 C 229.01024 921.2599 226.77167 919.0213 226.77167 916.2599 L 226.77167 855.3938 C 226.77167 852.6323 229.01024 850.3938 231.77167 850.3938 Z" stroke="black" stroke-linecap="round" stroke-linejoin="round" stroke-width="1"/>
        <text transform="translate(231.77167 867.8268)" fill="#080808">
          <tspan font-family="Courier" font-size="15" fill="#080808" x="22.871918" y="14" xml:space="preserve">ch.openchvote.core.</tspan>
          <tspan font-family="Courier" font-size="15" fill="#080808" x="72.379974" y="32" xml:space="preserve">protocol</tspan>
        </text>
      </g>
      <g id="Line_472">
        <line x1="340.1575" y1="1119.9583" x2="340.1575" y2="1062.9922" marker-start="url(#StickArrow_Marker)" stroke="black" stroke-linecap="round" stroke-linejoin="round" stroke-width="1"/>
      </g>
      <g id="Line_471">
        <line x1="340.1575" y1="978.226" x2="340.1575" y2="921.2599" marker-start="url(#StickArrow_Marker)" stroke="black" stroke-linecap="round" stroke-linejoin="round" stroke-width="1"/>
      </g>
      <g id="Line_470">
        <line x1="340.1575" y1="836.4938" x2="340.1575" y2="779.5276" marker-start="url(#StickArrow_Marker)" stroke="black" stroke-linecap="round" stroke-linejoin="round" stroke-width="1"/>
      </g>
      <g id="Line_469">
        <path d="M 623.6221 1119.9583 L 623.6221 885.8268 L 453.54333 885.8268" marker-start="url(#StickArrow_Marker)" stroke="black" stroke-linecap="round" stroke-linejoin="round" stroke-width="1"/>
      </g>
      <g id="Graphic_468">
        <rect x="-56.69292" y="992.126" width="226.77167" height="212.59844" fill="white"/>
        <rect x="-56.69292" y="992.126" width="226.77167" height="212.59844" stroke="black" stroke-linecap="round" stroke-linejoin="round" stroke-width="1"/>
      </g>
      <g id="Graphic_467">
        <text transform="translate(-49.6063 1117.497)" fill="black">
          <tspan font-family="Helvetica Neue" font-size="16" fill="black" x="50.367375" y="15" xml:space="preserve">base</tspan>
        </text>
      </g>
      <g id="Graphic_466">
        <text transform="translate(-49.6063 1067.9922)" fill="black">
          <tspan font-family="Helvetica Neue" font-size="16" fill="black" x="53.631375" y="15" xml:space="preserve">core</tspan>
        </text>
      </g>
      <g id="Graphic_465">
        <path d="M 54.6063 1112.5985 L 136.7323 1112.5985 C 139.49372 1112.5985 141.7323 1114.8371 141.7323 1117.5985 L 141.7323 1135.945 C 141.7323 1138.7064 139.49372 1140.945 136.7323 1140.945 L 54.6063 1140.945 C 51.84488 1140.945 49.6063 1138.7064 49.6063 1135.945 L 49.6063 1117.5985 C 49.6063 1114.8371 51.84488 1112.5985 54.6063 1112.5985 Z" fill="#ffc0c0"/>
        <path d="M 54.6063 1112.5985 L 136.7323 1112.5985 C 139.49372 1112.5985 141.7323 1114.8371 141.7323 1117.5985 L 141.7323 1135.945 C 141.7323 1138.7064 139.49372 1140.945 136.7323 1140.945 L 54.6063 1140.945 C 51.84488 1140.945 49.6063 1138.7064 49.6063 1135.945 L 49.6063 1117.5985 C 49.6063 1114.8371 51.84488 1112.5985 54.6063 1112.5985 Z" stroke="black" stroke-linecap="round" stroke-linejoin="round" stroke-width="1"/>
      </g>
      <g id="Graphic_464">
        <path d="M 54.6063 1062.9922 L 136.7323 1062.9922 C 139.49372 1062.9922 141.7323 1065.2308 141.7323 1067.9922 L 141.7323 1086.3386 C 141.7323 1089.1001 139.49372 1091.3386 136.7323 1091.3386 L 54.6063 1091.3386 C 51.84488 1091.3386 49.6063 1089.1001 49.6063 1086.3386 L 49.6063 1067.9922 C 49.6063 1065.2308 51.84488 1062.9922 54.6063 1062.9922 Z" fill="#94c78e"/>
        <path d="M 54.6063 1062.9922 L 136.7323 1062.9922 C 139.49372 1062.9922 141.7323 1065.2308 141.7323 1067.9922 L 141.7323 1086.3386 C 141.7323 1089.1001 139.49372 1091.3386 136.7323 1091.3386 L 54.6063 1091.3386 C 51.84488 1091.3386 49.6063 1089.1001 49.6063 1086.3386 L 49.6063 1067.9922 C 49.6063 1065.2308 51.84488 1062.9922 54.6063 1062.9922 Z" stroke="black" stroke-linecap="round" stroke-linejoin="round" stroke-width="1"/>
      </g>
      <g id="Graphic_463">
        <text transform="translate(-49.6063 1167.2048)" fill="black">
          <tspan font-family="Helvetica Neue" font-size="16" fill="black" x="27.839375" y="15" xml:space="preserve">requires</tspan>
        </text>
      </g>
      <g id="Line_462">
        <line x1="127.83229" y1="1176.378" x2="49.6063" y2="1176.378" marker-start="url(#StickArrow_Marker)" stroke="black" stroke-linecap="round" stroke-linejoin="round" stroke-width="1"/>
      </g>
      <g id="Graphic_461">
        <text transform="translate(-49.6063 1018.3859)" fill="black">
          <tspan font-family="Helvetica Neue" font-size="16" fill="black" x="12.127375" y="15" xml:space="preserve">simulation</tspan>
        </text>
      </g>
      <g id="Graphic_460">
        <path d="M 54.6063 1013.4874 L 136.7323 1013.4874 C 139.49372 1013.4874 141.7323 1015.726 141.7323 1018.4874 L 141.7323 1036.8339 C 141.7323 1039.5953 139.49372 1041.8339 136.7323 1041.8339 L 54.6063 1041.8339 C 51.84488 1041.8339 49.6063 1039.5953 49.6063 1036.8339 L 49.6063 1018.4874 C 49.6063 1015.726 51.84488 1013.4874 54.6063 1013.4874 Z" fill="#a7e4ff"/>
        <path d="M 54.6063 1013.4874 L 136.7323 1013.4874 C 139.49372 1013.4874 141.7323 1015.726 141.7323 1018.4874 L 141.7323 1036.8339 C 141.7323 1039.5953 139.49372 1041.8339 136.7323 1041.8339 L 54.6063 1041.8339 C 51.84488 1041.8339 49.6063 1039.5953 49.6063 1036.8339 L 49.6063 1018.4874 C 49.6063 1015.726 51.84488 1013.4874 54.6063 1013.4874 Z" stroke="black" stroke-linecap="round" stroke-linejoin="round" stroke-width="1"/>
      </g>
    </g>
  </g>
</svg>
