<?xml version="1.0" encoding="UTF-8" standalone="no"?>
<!DOCTYPE svg PUBLIC "-//W3C//DTD SVG 1.1//EN" "http://www.w3.org/Graphics/SVG/1.1/DTD/svg11.dtd">
<svg xmlns:xl="http://www.w3.org/1999/xlink" xmlns="http://www.w3.org/2000/svg" xmlns:dc="http://purl.org/dc/elements/1.1/" version="1.1" viewBox="197.9252 1097.9253 637.26596 213.59844" width="637.26596" height="213.59844">
  <defs>
    <marker orient="auto" overflow="visible" markerUnits="strokeWidth" id="StickArrow_Marker" stroke-linejoin="miter" stroke-miterlimit="10" viewBox="-13 -6 14 12" markerWidth="14" markerHeight="12" color="black">
      <g>
        <path d="M -12 0 L 0 0 M 0 4.5 L -12 0 L 0 -4.5" fill="none" stroke="currentColor" stroke-width="1"/>
      </g>
    </marker>
  </defs>
  <g id="algorithms" stroke="none" fill="none" stroke-opacity="1" fill-opacity="1" stroke-dasharray="none">
    <title>algorithms</title>
    <rect fill="white" x="197.9252" y="1097.9253" width="637.26596" height="213.59844"/>
    <g id="algorithms_Layer_1">
      <title>Layer 1</title>
      <g id="Graphic_459">
        <path d="M 486.8898 1240.1576 L 703.6615 1240.1576 C 706.4229 1240.1576 708.6615 1242.3961 708.6615 1245.1576 L 708.6615 1306.0237 C 708.6615 1308.7851 706.4229 1311.0237 703.6615 1311.0237 L 486.8898 1311.0237 C 484.12837 1311.0237 481.8898 1308.7851 481.8898 1306.0237 L 481.8898 1245.1576 C 481.8898 1242.3961 484.12837 1240.1576 486.8898 1240.1576 Z" fill="#ffc0c0"/>
        <path d="M 486.8898 1240.1576 L 703.6615 1240.1576 C 706.4229 1240.1576 708.6615 1242.3961 708.6615 1245.1576 L 708.6615 1306.0237 C 708.6615 1308.7851 706.4229 1311.0237 703.6615 1311.0237 L 486.8898 1311.0237 C 484.12837 1311.0237 481.8898 1308.7851 481.8898 1306.0237 L 481.8898 1245.1576 C 481.8898 1242.3961 484.12837 1240.1576 486.8898 1240.1576 Z" stroke="black" stroke-linecap="round" stroke-linejoin="round" stroke-width="1"/>
        <text transform="translate(486.8898 1257.5906)" fill="#080808">
          <tspan font-family="Courier" font-size="15" fill="#080808" x="22.871918" y="14" xml:space="preserve">ch.openchvote.base.</tspan>
          <tspan font-family="Courier" font-size="15" fill="#080808" x="67.87924" y="32" xml:space="preserve">utilities</tspan>
        </text>
      </g>
      <g id="Graphic_458">
        <path d="M 486.8898 1098.4253 L 703.6615 1098.4253 C 706.4229 1098.4253 708.6615 1100.6638 708.6615 1103.4253 L 708.6615 1164.2914 C 708.6615 1167.0528 706.4229 1169.2914 703.6615 1169.2914 L 486.8898 1169.2914 C 484.12837 1169.2914 481.8898 1167.0528 481.8898 1164.2914 L 481.8898 1103.4253 C 481.8898 1100.6638 484.12837 1098.4253 486.8898 1098.4253 Z" fill="#008f00" fill-opacity=".5"/>
        <path d="M 486.8898 1098.4253 L 703.6615 1098.4253 C 706.4229 1098.4253 708.6615 1100.6638 708.6615 1103.4253 L 708.6615 1164.2914 C 708.6615 1167.0528 706.4229 1169.2914 703.6615 1169.2914 L 486.8898 1169.2914 C 484.12837 1169.2914 481.8898 1167.0528 481.8898 1164.2914 L 481.8898 1103.4253 C 481.8898 1100.6638 484.12837 1098.4253 486.8898 1098.4253 Z" stroke="black" stroke-linecap="round" stroke-linejoin="round" stroke-width="1"/>
        <text transform="translate(486.8898 1115.8583)" fill="#080808">
          <tspan font-family="Courier" font-size="15" fill="#080808" x="22.871918" y="14" xml:space="preserve">ch.openchvote.core.</tspan>
          <tspan font-family="Courier" font-size="15" fill="#080808" x="63.37851" y="32" xml:space="preserve">algorithms</tspan>
        </text>
      </g>
      <g id="Line_455">
        <line x1="595.2756" y1="1226.2576" x2="595.2756" y2="1169.2914" marker-start="url(#StickArrow_Marker)" stroke="black" stroke-linecap="round" stroke-linejoin="round" stroke-width="1"/>
      </g>
      <g id="Graphic_451">
        <rect x="198.4252" y="1148.0316" width="226.77167" height="162.99214" fill="white"/>
        <rect x="198.4252" y="1148.0316" width="226.77167" height="162.99214" stroke="black" stroke-linecap="round" stroke-linejoin="round" stroke-width="1"/>
      </g>
      <g id="Graphic_450">
        <text transform="translate(205.51182 1223.7962)" fill="black">
          <tspan font-family="Helvetica Neue" font-size="16" fill="black" x="50.367375" y="15" xml:space="preserve">base</tspan>
        </text>
      </g>
      <g id="Graphic_449">
        <text transform="translate(205.51182 1174.2914)" fill="black">
          <tspan font-family="Helvetica Neue" font-size="16" fill="black" x="53.631375" y="15" xml:space="preserve">core</tspan>
        </text>
      </g>
      <g id="Graphic_448">
        <path d="M 309.72443 1218.8977 L 391.8504 1218.8977 C 394.61184 1218.8977 396.8504 1221.1363 396.8504 1223.8977 L 396.8504 1242.2442 C 396.8504 1245.0056 394.61184 1247.2442 391.8504 1247.2442 L 309.72443 1247.2442 C 306.963 1247.2442 304.72443 1245.0056 304.72443 1242.2442 L 304.72443 1223.8977 C 304.72443 1221.1363 306.963 1218.8977 309.72443 1218.8977 Z" fill="#ffc0c0"/>
        <path d="M 309.72443 1218.8977 L 391.8504 1218.8977 C 394.61184 1218.8977 396.8504 1221.1363 396.8504 1223.8977 L 396.8504 1242.2442 C 396.8504 1245.0056 394.61184 1247.2442 391.8504 1247.2442 L 309.72443 1247.2442 C 306.963 1247.2442 304.72443 1245.0056 304.72443 1242.2442 L 304.72443 1223.8977 C 304.72443 1221.1363 306.963 1218.8977 309.72443 1218.8977 Z" stroke="black" stroke-linecap="round" stroke-linejoin="round" stroke-width="1"/>
      </g>
      <g id="Graphic_447">
        <path d="M 309.72443 1169.2914 L 391.8504 1169.2914 C 394.61184 1169.2914 396.8504 1171.53 396.8504 1174.2914 L 396.8504 1192.6379 C 396.8504 1195.3993 394.61184 1197.6379 391.8504 1197.6379 L 309.72443 1197.6379 C 306.963 1197.6379 304.72443 1195.3993 304.72443 1192.6379 L 304.72443 1174.2914 C 304.72443 1171.53 306.963 1169.2914 309.72443 1169.2914 Z" fill="#94c78e"/>
        <path d="M 309.72443 1169.2914 L 391.8504 1169.2914 C 394.61184 1169.2914 396.8504 1171.53 396.8504 1174.2914 L 396.8504 1192.6379 C 396.8504 1195.3993 394.61184 1197.6379 391.8504 1197.6379 L 309.72443 1197.6379 C 306.963 1197.6379 304.72443 1195.3993 304.72443 1192.6379 L 304.72443 1174.2914 C 304.72443 1171.53 306.963 1169.2914 309.72443 1169.2914 Z" stroke="black" stroke-linecap="round" stroke-linejoin="round" stroke-width="1"/>
      </g>
      <g id="Graphic_446">
        <text transform="translate(205.51182 1273.504)" fill="black">
          <tspan font-family="Helvetica Neue" font-size="16" fill="black" x="27.839375" y="15" xml:space="preserve">requires</tspan>
        </text>
      </g>
      <g id="Line_445">
        <line x1="382.9504" y1="1282.6772" x2="304.72443" y2="1282.6772" marker-start="url(#StickArrow_Marker)" stroke="black" stroke-linecap="round" stroke-linejoin="round" stroke-width="1"/>
      </g>
    </g>
  </g>
</svg>
